{
    "constraintConfig": {
        "apiVersion": "constraints.gatekeeper.sh/v1alpha1",
        "kind": "GCPComputeIpForwardConstraintV1",
        "metadata": {
            "annotations": {
                "assetType": "compute.googleapis.com/Instance",
                "category": "Infrastructure Hardening",
                "description": "GCE instances should not implement IP forwarding.",
                "readme": "# gce_instance_forbid_ip_forward\n\n## Background\n\nGCE Instances should not enable IP Forwarding.\n\nIP Forwarding is a network feature that permits VM intances to forward network traffic between network interfaces and/or networks.\nUnless specifically required by a use case, and fully backed-up by firewall and routing configuration no VM instance should enable it, as it can contribute to a successfull network attack.\n\n## Fix\n\nThis setting cannot be changed after the instance creation, you must delete it and created a new instance.\n\n## References\n\n- [IP forwarding for instances](https://cloud.google.com/vpc/docs/using-routes#canipforward)\n",
                "version": "2022-08-10T08:44:13.930622694+02:00"
            },
            "name": "gce_instance_forbid_ip_forward"
        },
        "spec": {
            "match": {
                "exclude": null,
                "target": [
                    "organization/"
                ]
            },
            "parameters": {
                "instances": [
                    "^gke-.*",
                    "^aet-.*"
                ],
                "match_mode": "regex",
                "mode": "whitelist"
            },
            "severity": "critical"
        }
    },
    "feedMessage": {
        "asset": {
            "ancestors": [
                "projects/83314339016",
                "folders/130591603166",
                "organizations/167600783936"
            ],
            "ancestorsDisplayName": [
                "brunore-ram-noncompliant",
                "noncompliant",
                "ramtests.brunore.org"
            ],
            "ancestryPath": "organization/167600783936/folder/130591603166/project/83314339016",
            "ancestryPathDisplayName": "ramtests.brunore.org/noncompliant/brunore-ram-noncompliant",
            "ancestry_path": "organization/167600783936/folder/130591603166/project/83314339016",
            "assetType": "compute.googleapis.com/Instance",
            "asset_type": "compute.googleapis.com/Instance",
            "iamPolicy": null,
            "iam_policy": null,
            "name": "//compute.googleapis.com/projects/brunore-ram-noncompliant/zones/us-central1-a/instances/instance-3",
            "owner": "",
            "projectID": "brunore-ram-noncompliant",
            "resource": {
                "version": "v1",
                "discovery_document_uri": "https://www.googleapis.com/discovery/v1/apis/compute/v1/rest",
                "discovery_name": "Instance",
                "parent": "//cloudresourcemanager.googleapis.com/projects/83314339016",
                "data": {
                    "allocationAffinity": {
                        "consumeAllocationType": "ANY_ALLOCATION"
                    },
                    "canIpForward": true,
                    "confidentialInstanceConfig": {
                        "enableConfidentialCompute": false
                    },
                    "cpuPlatform": "Unknown CPU Platform",
                    "creationTimestamp": "2020-12-28T05:50:11.156-08:00",
                    "deletionProtection": false,
                    "description": "",
                    "disks": [
                        {
                            "autoDelete": true,
                            "boot": true,
                            "deviceName": "instance-3",
                            "diskSizeGb": "10",
                            "guestOsFeatures": [
                                {
                                    "type": "VIRTIO_SCSI_MULTIQUEUE"
                                },
                                {
                                    "type": "UEFI_COMPATIBLE"
                                }
                            ],
                            "index": 0,
                            "interface": "SCSI",
                            "licenses": [
                                "https://www.googleapis.com/compute/v1/projects/debian-cloud/global/licenses/debian-10-buster"
                            ],
                            "mode": "READ_WRITE",
                            "source": "https://www.googleapis.com/compute/v1/projects/brunore-ram-noncompliant/zones/us-central1-a/disks/instance-3",
                            "type": "PERSISTENT"
                        }
                    ],
                    "displayDevice": {
                        "enableDisplay": false
                    },
                    "fingerprint": "EcxBg_QdWEU=",
                    "id": "616717951089007741",
                    "labelFingerprint": "42WmSpB8rSM=",
                    "lastStartTimestamp": "2021-02-15T03:12:21.219-08:00",
                    "lastStopTimestamp": "2022-04-24T22:37:45.695-07:00",
                    "machineType": "https://www.googleapis.com/compute/v1/projects/brunore-ram-noncompliant/zones/us-central1-a/machineTypes/e2-medium",
                    "name": "instance-3",
                    "networkInterfaces": [
                        {
                            "accessConfigs": [
                                {
                                    "name": "External NAT",
                                    "networkTier": "PREMIUM",
                                    "type": "ONE_TO_ONE_NAT"
                                }
                            ],
                            "fingerprint": "fQzvjazuWvk=",
                            "name": "nic0",
                            "network": "https://www.googleapis.com/compute/v1/projects/brunore-ram-noncompliant/global/networks/default",
                            "networkIP": "10.128.0.6",
                            "subnetwork": "https://www.googleapis.com/compute/v1/projects/brunore-ram-noncompliant/regions/us-central1/subnetworks/default"
                        }
                    ],
                    "reservationAffinity": {
                        "consumeReservationType": "ANY_ALLOCATION"
                    },
                    "scheduling": {
                        "automaticRestart": true,
                        "onHostMaintenance": "MIGRATE",
                        "preemptible": false,
                        "provisioningModel": "STANDARD"
                    },
                    "selfLink": "https://www.googleapis.com/compute/v1/projects/brunore-ram-noncompliant/zones/us-central1-a/instances/instance-3",
                    "serviceAccounts": [
                        {
                            "email": "83314339016-compute@developer.gserviceaccount.com",
                            "scopes": [
                                "https://www.googleapis.com/auth/devstorage.read_only",
                                "https://www.googleapis.com/auth/logging.write",
                                "https://www.googleapis.com/auth/monitoring.write",
                                "https://www.googleapis.com/auth/servicecontrol",
                                "https://www.googleapis.com/auth/service.management.readonly",
                                "https://www.googleapis.com/auth/trace.append"
                            ]
                        }
                    ],
                    "shieldedInstanceConfig": {
                        "enableIntegrityMonitoring": false,
                        "enableSecureBoot": false,
                        "enableVtpm": false
                    },
                    "shieldedInstanceIntegrityPolicy": {
                        "updateAutoLearnPolicy": true
                    },
                    "startRestricted": false,
                    "status": "TERMINATED",
                    "tags": {
                        "fingerprint": "42WmSpB8rSM="
                    },
                    "zone": "https://www.googleapis.com/compute/v1/projects/brunore-ram-noncompliant/zones/us-central1-a"
                },
                "location": "us-central1-a"
            },
            "update_time": "2022-05-05T16:38:55.979806Z",
            "violationResolver": ""
        },
        "deleted": false,
        "origin": "scheduled",
        "step_stack": [
            {
                "step_id": "//pubsub.googleapis.com/projects/brunore-ram-qa-100/topics/actionTrigger/5681919250738537",
                "step_timestamp": "2022-09-22T12:39:36.184Z"
            },
            {
                "step_id": "launch/brunore-ram-qa-100/ram/launch-00076-sid/caiexport/d082522f-59e0-427a-82c3-bfe45943471a",
                "step_timestamp": "2022-09-22T12:39:40.935729Z"
            },
            {
                "step_id": "brunore-ram-qa-100-exports/t2022-09-22T12-39-42-855183251Z_org167600783936_resource_65912b76ae1e219e20b62c404ffd9b140564459e17fe9f9204adf7e85ec736ce/compute.googleapis.com/Instance/0/1663850511024075",
                "step_timestamp": "2022-09-22T12:41:51.03Z"
            },
            {
                "step_id": "gcs_notif_to_pubsub_msg/",
                "step_timestamp": "2022-09-22T12:41:51.030906Z"
            },
            {
                "step_id": "//pubsub.googleapis.com/projects/brunore-ram-qa-100/topics/caiFeed/5681904504752946",
                "step_timestamp": "2022-09-22T12:41:51.264Z"
            }
        ],
        "window": {
            "startTime": "2022-09-22T12:39:36.184Z"
        }
    },
    "functionConfig": {
        "deploymentTime": "2022-08-10T08:44:13.930622694+02:00",
        "environment": "qa",
        "functionName": "GCPComputeIpForwardConstraintV1",
        "projectID": "brunore-ram-qa-100"
    },
    "nonCompliance": {
        "evaluationTimeStamp": "2022-09-22T12:41:52.111651737Z",
        "message": "instance-3 is not allowed to have IP forwarding enabled.",
        "metadata": {
            "resource": "//compute.googleapis.com/projects/brunore-ram-noncompliant/zones/us-central1-a/instances/instance-3"
        }
    },
    "regoModules": {
        "GCPComputeIpForwardConstraintV1.rego": "# Copyright 2024 Google LLC\n#\n# Licensed under the Apache License, Version 2.0 (the \"License\");\n# you may not use this file except in compliance with the License.\n# You may obtain a copy of the License at\n#\n#      http://www.apache.org/licenses/LICENSE-2.0\n#\n# Unless required by applicable law or agreed to in writing, software\n# distributed under the License is distributed on an \"AS IS\" BASIS,\n# WITHOUT WARRANTIES OR CONDITIONS OF ANY KIND, either express or implied.\n# See the License for the specific language governing permissions and\n# limitations under the License.\n#\npackage templates.gcp.GCPComputeIpForwardConstraintV1\n\nimport data.validator.gcp.lib as lib\n\n###########################\n# Find Whitelist/Blacklist Violations\n###########################\ndeny[{\n\t\"msg\": message,\n\t\"details\": metadata,\n}] {\n\tconstraint := input.constraint\n\tlib.get_constraint_params(constraint, params)\n\tmatch_mode := lib.get_default(params, \"match_mode\", \"exact\")\n\tmode := lib.get_default(params, \"mode\", \"whitelist\")\n\t\n\tasset := input.asset\n\tasset.asset_type == \"compute.googleapis.com/Instance\"\n\tinstance := asset.resource.data\n\t\n\t# Check if instance is in blacklist/whitelist\n\n\ttarget_instances := lib.get_default(params, \"instances\", [])\n\tasset_name := instance.name\n\ttrace(sprintf(\"asset name:%v, target_instances: %v, mode: %v, match_mode: %v\", [asset_name, target_instances, mode, match_mode]))\n\tinstance_name_targeted(asset_name, target_instances, mode, match_mode)\n\t\n\t# Check if IP Forwarding is active for the instance\n\tlib.get_default(instance, \"canIpForward\", false) == true\n\t\n\tmessage := sprintf(\"%v is not allowed to have IP forwarding enabled.\", [asset_name])\n\tmetadata := {\"resource\": asset.name}\n}\n\n###########################\n# Rule Utilities\n###########################\ninstance_name_targeted(asset_name, instance_filters, mode, match_mode) {\n\tmode == \"whitelist\"\n\tmatch_mode == \"exact\"\n\tmatches := {asset_name} \u0026 cast_set(instance_filters)\n\tcount(matches) == 0\n}\n\ninstance_name_targeted(asset_name, instance_filters, mode, match_mode) {\n\tmode == \"blacklist\"\n\tmatch_mode == \"exact\"\n\tmatches := {asset_name} \u0026 cast_set(instance_filters)\n\tcount(matches) \u003e 0\n}\n\ninstance_name_targeted(asset_name, instance_filters, mode, match_mode) {\n\tmode == \"whitelist\"\n\tmatch_mode == \"regex\"\n\tnot re_match_name(asset_name, instance_filters)\n}\n\ninstance_name_targeted(asset_name, instance_filters, mode, match_mode) {\n\tmode == \"blacklist\"\n\tmatch_mode == \"regex\"\n\tre_match_name(asset_name, instance_filters)\n}\n\nre_match_name(name, filters) {\n\tre_match(filters[_], name)\n}\n",
        "audit.rego": "\n#\n# Copyright 2024 Google LLC\n#\n# Licensed under the Apache License, Version 2.0 (the \"License\");\n# you may not use this file except in compliance with the License.\n# You may obtain a copy of the License at\n#\n#      http://www.apache.org/licenses/LICENSE-2.0\n#\n# Unless required by applicable law or agreed to in writing, software\n# distributed under the License is distributed on an \"AS IS\" BASIS,\n# WITHOUT WARRANTIES OR CONDITIONS OF ANY KIND, either express or implied.\n# See the License for the specific language governing permissions and\n# limitations under the License.\n#\n\npackage validator.gcp.lib\n\n# RULE: the audit rule is result if its body {} evaluates to true\n# The rule body {} can be understood intuitively as: expression-1 AND expression-2 AND ... AND expression-N\naudit[result] {\n\t# iterate over each asset\n\tasset := input.assets[_]\n\t# WARNING - FOR LOCAL TESTING use asset := data.assets[_]\n\n\ttrace(sprintf(\"asset name: %v\", [asset.name]))\n\n\t# assign the constrains in a variable\n\tconstraints := input.constraints\n\t# WARNING - FOR LOCAL TESTING use constraints := data.constraints\n\t\n\t# iterate over each constraint\n\tconstraint := constraints[_]\n\ttrace(sprintf(\"constraint kind: %v\", [constraint.kind]))    \n\n\t# use a custom function to retreive constraint.spec, if not defined returns a default value that is an empty object\n\tspec := _get_default(constraint, \"spec\", {})\n\t# use a custom function to retreive constraint.spec.match, if not defined returns a default value that is an empty objecy\n\tmatch := _get_default(spec, \"match\", {})\n\t# use a custom function to retreive constraint.spec.match.target, if not defined returns a default value that is an array with one target object targetting any organization, and childs\n\ttarget := _get_default(match, \"target\", [\"organization/*\"])\n\t# use a custom function to retreive constraint.spec.match.gcp, if not defined returns a default value that is an empty object\n\tgcp := _get_default(match, \"gcp\", {})\n\t# use a custom function to retreive constraint.spec.match.gcp.target, if not defined returns what we already got in target variable\n\tgcp_target := _get_default(gcp, \"target\", target)\n\t# iterate over each target and use builtin regex to check if the asset ancestry path matches one of them\n\t# TRUE if the asset ancestry path matches (regex) one of the target (iterate targets)\n\t# FALSE when the ancestry path do not matches at least one of the targer\n\ttrace(sprintf(\"asset.ancestry_path: %v\", [asset.ancestry_path]))\n\ttrace(sprintf(\"targets: %v\", [gcp_target]))\n\ttrace(sprintf(\"is in scope:\",[re_match(gcp_target[_], asset.ancestry_path)]))\n\tre_match(gcp_target[_], asset.ancestry_path)\n\n\t# use a custom function to retreive constraint.spec.match.exclude, if not defined returns a default value that is an empty array\n\texclude := _get_default(match, \"exclude\", [])\n\t# use a custom function to retreive constraint.spec.match.gcp.exclude, if not defined returns what we already got in exlucde variable\n\tgcp_exclude := _get_default(gcp, \"exclude\", exclude)\n\t# iterate over the exclusion list (the pattern) and use regex builtin function to check if the asset ancestry path (the value) matches one of then\n\t# assign to exclusion_match variable the virtual document generated by a rule which is a set built by using a comprehension\n\t# This set containts the asset ancestry path if it maches one of the exclusion\n\t# or is empty (set()) if the asset ancestry path does not matched any of the exclusion\n\texclusion_match := {asset.ancestry_path | re_match(gcp_exclude[_], asset.ancestry_path)}\n\ttrace(sprintf(\"exclusions: %v\", [gcp_exclude]))\n\ttrace(sprintf(\"Excluded if count exclusion_match \u003e 0: %v\", [count(exclusion_match)]))\n\t# this expression evaluate to true when count is zero, aka the ancestry path does not matches any of the exclusion, otherwise evaluates to false\n\tcount(exclusion_match) == 0\n\n\t# Use a with statement to programatically call the rego rule that is specified in the YAML constraint file\n\tviolations := data.templates.gcp[constraint.kind].deny with input.asset as asset\n\t\t with input.constraint as constraint\n\n\t# Iterates through each violation found\n\tviolation := violations[_]\n\t# if the asset is in target, and not excluded and at least one violation is founds, then returns for each violation a result object with the 4 following fields:\n\tresult := {\n\t\t\"asset\": asset.name,\n\t\t\"constraint\": constraint.metadata.name,\n\t\t\"constraint_config\": constraint,\n\t\t\"violation\": violation,\n\t}\n}\n\n# has_field returns whether an object has a field\n_has_field(object, field) {\n\tobject[field]\n}\n\n# False is a tricky special case, as false responses would create an undefined document unless\n# they are explicitly tested for\n_has_field(object, field) {\n\tobject[field] == false\n}\n\n_has_field(object, field) = false {\n\tnot object[field]\n\tnot object[field] == false\n}\n\n# get_default returns the value of an object's field or the provided default value.\n# It avoids creating an undefined state when trying to access an object attribute that does\n# not exist\n_get_default(object, field, _default) = output {\n\t_has_field(object, field)\n\toutput = object[field]\n}\n\n_get_default(object, field, _default) = output {\n\t_has_field(object, field) == false\n\toutput = _default\n}\n",
        "constraints.rego": "\n#\n# Copyright 2024 Google LLC\n#\n# Licensed under the Apache License, Version 2.0 (the \"License\");\n# you may not use this file except in compliance with the License.\n# You may obtain a copy of the License at\n#\n#      http://www.apache.org/licenses/LICENSE-2.0\n#\n# Unless required by applicable law or agreed to in writing, software\n# distributed under the License is distributed on an \"AS IS\" BASIS,\n# WITHOUT WARRANTIES OR CONDITIONS OF ANY KIND, either express or implied.\n# See the License for the specific language governing permissions and\n# limitations under the License.\n#\n\npackage validator.gcp.lib\n\n# Function to fetch the constraint spec\n# Usage:\n# get_constraint_params(constraint, params)\n\nget_constraint_params(constraint) = params {\n\tparams := constraint.spec.parameters\n}\n\n# Function to fetch constraint info\n# Usage:\n# get_constraint_info(constraint, info)\n\nget_constraint_info(constraint) = info {\n\tinfo := {\n\t\t\"name\": constraint.metadata.name,\n\t\t\"kind\": constraint.kind,\n\t}\n}\n",
        "util.rego": "\n#\n# Copyright 2024 Google LLC\n#\n# Licensed under the Apache License, Version 2.0 (the \"License\");\n# you may not use this file except in compliance with the License.\n# You may obtain a copy of the License at\n#\n#      http://www.apache.org/licenses/LICENSE-2.0\n#\n# Unless required by applicable law or agreed to in writing, software\n# distributed under the License is distributed on an \"AS IS\" BASIS,\n# WITHOUT WARRANTIES OR CONDITIONS OF ANY KIND, either express or implied.\n# See the License for the specific language governing permissions and\n# limitations under the License.\n#\n\npackage validator.gcp.lib\n\n# has_field returns whether an object has a field\nhas_field(object, field) {\n\tobject[field]\n}\n\n# False is a tricky special case, as false responses would create an undefined document unless\n# they are explicitly tested for\nhas_field(object, field) {\n\tobject[field] == false\n}\n\nhas_field(object, field) = false {\n\tnot object[field]\n\tnot object[field] == false\n}\n\n# get_default returns the value of an object's field or the provided default value.\n# It avoids creating an undefined state when trying to access an object attribute that does\n# not exist\nget_default(object, field, _default) = output {\n\thas_field(object, field)\n\toutput = object[field]\n}\n\nget_default(object, field, _default) = output {\n\thas_field(object, field) == false\n\toutput = _default\n}\n"
    },
    "step_stack": [
        {
            "step_id": "//pubsub.googleapis.com/projects/brunore-ram-qa-100/topics/actionTrigger/5681919250738537",
            "step_timestamp": "2022-09-22T12:39:36.184Z"
        },
        {
            "step_id": "launch/brunore-ram-qa-100/ram/launch-00076-sid/caiexport/d082522f-59e0-427a-82c3-bfe45943471a",
            "step_timestamp": "2022-09-22T12:39:40.935729Z"
        },
        {
            "step_id": "brunore-ram-qa-100-exports/t2022-09-22T12-39-42-855183251Z_org167600783936_resource_65912b76ae1e219e20b62c404ffd9b140564459e17fe9f9204adf7e85ec736ce/compute.googleapis.com/Instance/0/1663850511024075",
            "step_timestamp": "2022-09-22T12:41:51.03Z"
        },
        {
            "step_id": "gcs_notif_to_pubsub_msg/",
            "step_timestamp": "2022-09-22T12:41:51.030906Z"
        },
        {
            "step_id": "//pubsub.googleapis.com/projects/brunore-ram-qa-100/topics/caiFeed/5681904504752946",
            "step_timestamp": "2022-09-22T12:41:51.264Z"
        },
        {
            "step_id": "convertfeed/brunore-ram-qa-100/ram/convertfeed-00179-toz/asset_feed.compute.googleapis.com/Instance/450f04b2-7728-4e2a-8e0c-f00b30b03578",
            "step_timestamp": "2022-09-22T12:41:51.274102002Z"
        },
        {
            "step_id": "fetchrules/brunore-ram-qa-100/ram/fetchrules-00144-haf/asset_rule/230575d7-9811-4ef8-b07f-d8b140b431f9",
            "step_timestamp": "2022-09-22T12:41:51.589566151Z"
        }
    ]
}